{
  "/api": {
    "target": "http://localhost:8088",
    "secure": false
  },
  "/auth": {
    "target": "http://localhost:8088",
    "secure": false
  },
  "/phpmyadmin": {
    "target": "http://localhost:8088",
    "secure": false
  },
  "/sso-plug-and-wire": {
    "target": "http://localhost:8088",
    "secure": false
  }
}