[{
        "resource": "plug/delega/delega#ngoninit",
        "type": "plug-resource",
        "acl": "enabled"
    },
    {
        "resource": "plug/functionalities/functionalities#ngoninit",
        "type": "plug-resource",
        "acl": "enabled"
    },
    {
        "resource": "plug/functionalities/functionalities/tree/tree#ngoninit",
        "type": "plug-resource",
        "acl": "enabled"
    },
   {
        "resource": "plug/hotline/hotline#ngoninit",
        "type": "plug-resource",
        "acl": "enabled"
    },
    {
        "resource": "plug/omarello/omarello#ngoninit",
        "type": "plug-resource",
        "acl": "enabled"
    },
    {
        "resource": "plug/profiles/profiles#ngoninit",
        "type": "plug-resource",
        "acl": "enabled"
    },
    {
        "resource": "plug/resources/resources#ngoninit",
        "type": "plug-resource",
        "acl": "enabled"
    },
    {
        "resource": "plug/resources/resources#load",
        "type": "plug-resource",
        "acl": "enabled"
    },
    {
        "resource": "plug/role/role#ngoninit",
        "type": "plug-resource",
        "acl": "enabled"
    },
    {
        "resource": "homepage/homepage#ngoninit",
        "type": "plug-resource",
        "acl": "enabled"
    },
    {
        "resource": "contenuto1/contenuto1#fields#nome",
        "type": "plug-resource",
        "acl": "enabled"
    },
    {
        "resource": "contenuto1/contenuto1#fields#cognome",
        "type": "plug-resource",
        "acl": "enabled"
    },
    {
        "resource": "contenuto1/contenuto1#fields#cap",
        "type": "plug-resource",
        "acl": "enabled"
    },
    {
        "resource": "contenuto1/contenuto1#fields#pappa",
        "type": "plug-resource",
        "acl": "enabled"
    },
    {
        "resource": "contenuto1/contenuto1#fields#acconsento",
        "type": "plug-resource",
        "acl": "enabled"
    },
    {
        "resource": "contenuto1/contenuto1#submit",
        "type": "plug-resource",
        "acl": "enabled"
    },
    {
        "resource": "contenuto1/contenuto1#ngoninit",
        "type": "plug-resource",
        "acl": "enabled"
    },
    {
        "resource": "contenuto2/contenuto2#ngoninit",
        "type": "plug-resource",
        "acl": "enabled"
    },
    {
        "resource":  "plug/functionalities/functionalities#remove",
        "type": "plug-resource",
        "acl": "enabled"
    }
]